\relax 
\catcode `:\active 
\catcode `;\active 
\catcode `!\active 
\catcode `?\active 
\select@language{french}
\@writefile{toc}{\select@language{french}}
\@writefile{lof}{\select@language{french}}
\@writefile{lot}{\select@language{french}}
\@writefile{toc}{\contentsline {section}{\numberline {Exercice 1}structuration}{1}}
\newlabel{exostruct}{{Exercice 1}{1}}
\@writefile{toc}{\contentsline {section}{\numberline {Exercice 2}pr\IeC {\'e}sentation}{1}}
\newlabel{exoCSS}{{Exercice 2}{1}}
\@writefile{toc}{\contentsline {section}{\numberline {Exercice 3}hyperliens}{2}}
\newlabel{liens}{{Exercice 3}{2}}
\@writefile{toc}{\contentsline {section}{\numberline {Exercice 4}pseudo styles CSS}{2}}
\@writefile{toc}{\contentsline {section}{\numberline {Exercice 5}manipulation avec Javascript/jQuery}{2}}
